{
    "success": true,
    "statusCode": 200,
    "statusText": "OK",
    "last": null,
    "current": "https://api.space.jakobi.io/launch/upcoming/?lmit=10&page=1",
    "next": "https://api.space.jakobi.io/launch/upcoming/?lmit=10&page=2",
    "count": 10,
    "total": 187,
    "result": [
        {
            "id": 10,
            "name": "Starlink 10",
            "slug": "starlink-10",
            "description": "A Starlink launch.",
            "livestreamURL": "https://youtu.be/b4H321d",
            "rocket": {
                "id": 17,
                "name": "Falcon 9",
                "slug": "falcon-9",
                "imageURL": "https://de.wikimedia.org/wp-content/falcon-9.png",
                "wikiURL": "https://de.wikipedia.org/falcon-9"
            },
            "provider": {
                "id": 33,
                "name": "SpaceX",
                "slug": "spacex",
                "abbreviation": "SPX",
                "imageURL": "https://de.wikimedia.org/wp-content/space-x-logo.png",
                "wikiURL": "https://de.wikipedia.org/spacex"
            },
            "pad": {
                "id": 33,
                "name": "Launch Complex 39A",
                "slug": "launch-complex-39a",
                "imageURL": "https://de.wikimedia.org/wp-content/space-x-logo.png",
                "wikiURL": "https://de.wikipedia.org/spacex"
            },
            "tags": [
                "spacex",
                "landing",
                "falcon",
                "starlink"
            ],
            "status": {
                "displayName": "Ready For Launch",
                "cancelled": false,
                "tbd": false,
                "failed": null
            },
            "launchWindow": {
                "startWinOpen": "22-10-2020 12:13:00",
                "startNet": "22-10-2020 12:13:30",
                "startWinClose": "22-10-2020 12:14:00",
                "instant": false
            },
            "published": true
        }
    ]
}
